Examples: customDataGen • youdrawitR
…
The customDataGen()function does not necessarily need
you to provide an xvar and yvar, if none are provided it will use the
first column as the xvar and the second column as the yvar. For
additional information on parameters of customDataGen()
function look at the function documentation.

The customDataGen() function returns a list containing
the point data and line data processed from the inputted data frame.

# Print out the custom data
custom_data
#> $line_data
#> # A tibble: 163 × 7
#>    data          x     y   coef   int lower_bound upper_bound
#>    <chr>     <dbl> <dbl>  <dbl> <dbl>       <dbl>       <dbl>
#>  1 line_data  2850  180. 0.0159  134.        177.        182.
#>  2 line_data  2850  180. 0.0159  134.        177.        182.
#>  3 line_data  2900  181. 0.0159  134.        178.        183.
#>  4 line_data  2925  181. 0.0159  134.        178.        184.
#>  5 line_data  3075  183. 0.0159  134.        181.        186.
#>  6 line_data  3150  185. 0.0159  134.        182.        187.
#>  7 line_data  3150  185. 0.0159  134.        182.        187.
#>  8 line_data  3175  185. 0.0159  134.        183.        187.
#>  9 line_data  3200  185. 0.0159  134.        183.        188.
#> 10 line_data  3200  185. 0.0159  134.        183.        188.
#> # ℹ 153 more rows
#> 
#> $point_data
#> # A tibble: 163 × 3
#>    data           x     y
#>    <chr>      <dbl> <dbl>
#>  1 point_data  2850   181
#>  2 point_data  2850   184
#>  3 point_data  2900   187
#>  4 point_data  2925   193
#>  5 point_data  3075   183
#>  6 point_data  3150   172
#>  7 point_data  3150   185
#>  8 point_data  3175   181
#>  9 point_data  3200   187
#> 10 point_data  3200   193
#> # ℹ 153 more rows
…
