Examples: linearDataGen • youdrawitR
…
conf_int is a logical argument specifying whether a 95%
confidence interval should be generated for the drawr function. Default
is FALSE. If TRUE, user must also specify conf_int = TRUE in the
drawr() function to generate 95% confidence interval upper
and lower boundary lines.

The linearDataGen() function returns a list containing
the point data and line data generated from the parameters. Let’s take a
look at the data that was generated from the example above:

linear_data
#> $point_data
#> # A tibble: 30 × 3
#>    data           x      y
#>    <chr>      <dbl>  <dbl>
#>  1 point_data 0     -1.12 
#>  2 point_data 0.690  0.919
#>  3 point_data 1.38   5.88 
#>  4 point_data 2.07   4.28 
#>  5 point_data 2.76   5.78 
#>  6 point_data 3.45  10.3  
#>  7 point_data 4.14   9.20 
#>  8 point_data 4.83   7.13 
#>  9 point_data 5.52   9.66 
#> 10 point_data 6.21  11.5  
#> # ℹ 20 more rows
#> 
#> $line_data
#> # A tibble: 81 × 5
#>    data          x     y  coef   int
#>    <chr>     <dbl> <dbl> <dbl> <dbl>
#>  1 line_data  0    0.619  1.93 0.619
#>  2 line_data  0.25 1.10   1.93 0.619
#>  3 line_data  0.5  1.58   1.93 0.619
#>  4 line_data  0.75 2.07   1.93 0.619
#>  5 line_data  1    2.55   1.93 0.619
#>  6 line_data  1.25 3.03   1.93 0.619
#>  7 line_data  1.5  3.51   1.93 0.619
#>  8 line_data  1.75 3.99   1.93 0.619
#>  9 line_data  2    4.48   1.93 0.619
#> 10 line_data  2.25 4.96   1.93 0.619
#> # ℹ 71 more rows
…
